*** Darwin 14x17 ***
Turn = 0.
  01234567890123456
0 f................
1 f................
2 ..r..............
3 ..r..............
4 ..r..............
5 ..r..............
6 ...t.............
7 .h...............
8 ...t.............
9 f................
0 ...t.............
1 f................
2 .................
3 .................

Turn = 195.
  01234567890123456
0 .............r...
1 .................
2 ....rr.........r.
3 r....r...........
4 ......r..........
5 r...............r
6 .................
7 .................
8 r................
9 .................
0 ................r
1 .................
2 .............r...
3 .................

Turn = 390.
  01234567890123456
0 .........rr...r..
1 r........r.......
2 .................
3 .................
4 .................
5 .................
6 ........r........
7 r......r.........
8 .................
9 .................
0 ......r.....r....
1 ...........r.....
2 .................
3 ....r............

Turn = 585.
  01234567890123456
0 .r.......r.......
1 ..............r..
2 ...............r.
3 r...............r
4 .................
5 .................
6 ...........rr....
7 .................
8 rr...............
9 .................
0 r................
1 .................
2 .................
3 ..........r......

*** Darwin 6x7 ***
Turn = 0.
  0123456
0 .h.....
1 ...t...
2 .......
3 .......
4 .......
5 .......

Turn = 85.
  0123456
0 .h.....
1 ...t...
2 .......
3 .......
4 .......
5 .......

Turn = 170.
  0123456
0 .h.....
1 ...t...
2 .......
3 .......
4 .......
5 .......

Turn = 255.
  0123456
0 .h.....
1 ...t...
2 .......
3 .......
4 .......
5 .......

Turn = 340.
  0123456
0 .h.....
1 ...t...
2 .......
3 .......
4 .......
5 .......

Turn = 425.
  0123456
0 .h.....
1 ...t...
2 .......
3 .......
4 .......
5 .......

Turn = 510.
  0123456
0 .h.....
1 ...t...
2 .......
3 .......
4 .......
5 .......

*** Darwin 9x14 ***
Turn = 0.
  01234567890123
0 f.............
1 ...t..........
2 f.............
3 f.............
4 .h............
5 ..............
6 ..............
7 ..............
8 ..............

Turn = 146.
  01234567890123
0 f.............
1 ...t..........
2 f.............
3 f.............
4 ..............
5 ..............
6 ..............
7 ..............
8 .h............

*** Darwin 8x3 ***
Turn = 0.
  012
0 t..
1 f..
2 ...
3 ...
4 ...
5 ...
6 ...
7 ...

Turn = 146.
  012
0 t..
1 t..
2 ...
3 ...
4 ...
5 ...
6 ...
7 ...

Turn = 292.
  012
0 t..
1 t..
2 ...
3 ...
4 ...
5 ...
6 ...
7 ...

Turn = 438.
  012
0 t..
1 t..
2 ...
3 ...
4 ...
5 ...
6 ...
7 ...

Turn = 584.
  012
0 t..
1 t..
2 ...
3 ...
4 ...
5 ...
6 ...
7 ...

Turn = 730.
  012
0 t..
1 t..
2 ...
3 ...
4 ...
5 ...
6 ...
7 ...

Turn = 876.
  012
0 t..
1 t..
2 ...
3 ...
4 ...
5 ...
6 ...
7 ...

*** Darwin 14x20 ***
Turn = 0.
  01234567890123456789
0 ...t................
1 ...t................
2 ..r.................
3 f...................
4 f...................
5 ...t................
6 f...................
7 ..r.................
8 ..r.................
9 f...................
0 ....................
1 ....................
2 ....................
3 ....................

Turn = 66.
  01234567890123456789
0 ..............r.....
1 ..............r.....
2 .............r......
3 ....................
4 ..................r.
5 ...t...............r
6 ...................r
7 ....................
8 ....................
9 r...................
0 ....................
1 ...................r
2 ....................
3 .......r............

Turn = 132.
  01234567890123456789
0 ................r...
1 ....................
2 ....................
3 ......r.............
4 ....................
5 .......r.........r..
6 ........r.......r...
7 ....................
8 ...................r
9 ....................
0 r...................
1 ....................
2 ...................r
3 ...............r....

Turn = 198.
  01234567890123456789
0 .rr........r........
1 r...................
2 ...r.......rr.......
3 ....................
4 ....................
5 ..r.................
6 ....................
7 ....................
8 r...................
9 ....................
0 ....................
1 ....................
2 ..................r.
3 ....................

Turn = 264.
  01234567890123456789
0 .......r............
1 ....................
2 ....................
3 ....................
4 ....................
5 ....................
6 ....................
7 ....................
8 r..................r
9 r...................
0 r...................
1 .....r..............
2 ......r.............
3 ......r..rr.........

Turn = 330.
  01234567890123456789
0 r...r...............
1 ....................
2 ....................
3 ..................rr
4 ....................
5 ....................
6 ....................
7 r...................
8 ....................
9 r...................
0 ..........r.........
1 ....................
2 ...r................
3 ...r..r.............

Turn = 396.
  01234567890123456789
0 ....r...............
1 ........r...........
2 ....................
3 ....................
4 ....................
5 ....................
6 ....................
7 ....................
8 .......r............
9 r...................
0 ...................r
1 r...................
2 .....r..............
3 r...r.....r.........

Turn = 462.
  01234567890123456789
0 ............r.......
1 ....................
2 ...................r
3 ..........r.........
4 ...........r........
5 r...................
6 ....................
7 ....................
8 ............r.......
9 ................rr..
0 ........r...........
1 ....................
2 ....................
3 ..........r.........

Turn = 528.
  01234567890123456789
0 ......r...r.....r...
1 ....................
2 ....................
3 ....................
4 r...................
5 ....................
6 ....................
7 ....................
8 ....................
9 ....................
0 ....................
1 ..........r.......rr
2 ........r.r.........
3 r...................

Turn = 594.
  01234567890123456789
0 ..r.........r.......
1 ....................
2 ....................
3 ....................
4 ....r...............
5 .....r..............
6 ....................
7 ...............r....
8 ...................r
9 ....................
0 ....................
1 ....................
2 ..........r.........
3 ..............r.r..r

Turn = 660.
  01234567890123456789
0 .............r.....r
1 ....................
2 ....................
3 ............r.......
4 ....................
5 .......r....r.......
6 ....................
7 ............r.......
8 ....................
9 ....................
0 ....................
1 ....................
2 .......r............
3 .....r....r........r

Turn = 726.
  01234567890123456789
0 rr............r.....
1 ..............r.....
2 ...................r
3 ....................
4 ....................
5 ....................
6 ....................
7 ........r...........
8 ....................
9 ....................
0 ....................
1 ....................
2 ..................r.
3 ...r...r...........r

Turn = 792.
  01234567890123456789
0 ..................rr
1 ....................
2 .............r......
3 ............r.......
4 ...................r
5 ....................
6 ....................
7 .......r...........r
8 r...................
9 ....................
0 ....................
1 ....................
2 ....................
3 ............rr......

Turn = 858.
  01234567890123456789
0 r...........r......r
1 ....................
2 ...................r
3 ..............r.....
4 ....................
5 ....................
6 ....................
7 ....................
8 ....................
9 ....................
0 .............r......
1 ........r...........
2 ....................
3 ..........r.....rr..

Turn = 924.
  01234567890123456789
0 ....r........r......
1 ..........r...r.....
2 ....................
3 r...................
4 .........r..........
5 ....................
6 ....................
7 ....................
8 ....................
9 ....................
0 ....................
1 ................r...
2 .................r..
3 r...............r...

Turn = 990.
  01234567890123456789
0 ..................r.
1 r...................
2 ....................
3 ....................
4 ....................
5 ....................
6 ....................
7 ....................
8 .r..................
9 ................rr..
0 ..........r...r.r...
1 ....................
2 r...................
3 ..................r.

Turn = 1056.
  01234567890123456789
0 ..........r.......r.
1 ..r.................
2 ....................
3 ....................
4 ....................
5 ............r.......
6 ....................
7 ....................
8 ...r................
9 ....................
0 .rr.................
1 ....................
2 ....................
3 r........r........r.

Turn = 1122.
  01234567890123456789
0 ..........r..r......
1 ....................
2 ....................
3 ..........r.........
4 ...........r........
5 .....r..............
6 .....r..............
7 ..r.................
8 .r..................
9 r...................
0 ....................
1 ....................
2 ....................
3 .............r......

Turn = 1188.
  01234567890123456789
0 ......r.............
1 ....r...............
2 ....................
3 ....................
4 ....................
5 ....................
6 ....................
7 ....................
8 .....r..............
9 ......rr............
0 ....................
1 ....................
2 ....................
3 r......r....r.....rr

Turn = 1254.
  01234567890123456789
0 r...................
1 ....................
2 ....................
3 ..............r.....
4 .............r......
5 ...................r
6 ....................
7 ..........r.........
8 .......rr..r.......r
9 ....................
0 ....................
1 ....................
2 ....................
3 r...................

Turn = 1320.
  01234567890123456789
0 ........r...........
1 ..........r.........
2 ....................
3 ....................
4 ....................
5 ....................
6 ..............r.....
7 ....................
8 ....................
9 ....................
0 ............r.......
1 ...........r........
2 ....................
3 rr.......r........rr

Turn = 1386.
  01234567890123456789
0 ......r.............
1 r..................r
2 r...................
3 ....................
4 ...................r
5 .....rr.............
6 .r..................
7 ....................
8 ....................
9 ....................
0 ....................
1 ....................
2 ....................
3 ...r..r.............

Turn = 1452.
  01234567890123456789
0 ..r...........r.....
1 ...................r
2 ....................
3 ....................
4 ..................r.
5 ....................
6 ............r.......
7 ....................
8 ....................
9 ...r................
0 ................r...
1 .............r......
2 ....................
3 r............r......

Turn = 1518.
  01234567890123456789
0 ........r...r.......
1 r...................
2 ....................
3 ....................
4 .......r............
5 ....................
6 ....................
7 ............r.......
8 ...................r
9 ....r.............rr
0 ....................
1 ....................
2 ....................
3 ......r.............

Turn = 1584.
  01234567890123456789
0 rrrr................
1 ....................
2 ...r................
3 ....................
4 ....................
5 ....................
6 .............r......
7 ....................
8 ....................
9 ..r.................
0 ................r...
1 ....................
2 ....................
3 .............rr.....

*** Darwin 3x6 ***
Turn = 0.
  012345
0 f.....
1 f.....
2 ......

Turn = 87.
  012345
0 f.....
1 f.....
2 ......

Turn = 174.
  012345
0 f.....
1 f.....
2 ......

Turn = 261.
  012345
0 f.....
1 f.....
2 ......

Turn = 348.
  012345
0 f.....
1 f.....
2 ......

Turn = 435.
  012345
0 f.....
1 f.....
2 ......

Turn = 522.
  012345
0 f.....
1 f.....
2 ......

Turn = 609.
  012345
0 f.....
1 f.....
2 ......

Turn = 696.
  012345
0 f.....
1 f.....
2 ......

Turn = 783.
  012345
0 f.....
1 f.....
2 ......

Turn = 870.
  012345
0 f.....
1 f.....
2 ......

*** Darwin 12x1 ***
Turn = 0.
  0
0 r
1 .
2 .
3 .
4 .
5 .
6 .
7 .
8 .
9 .
0 .
1 .

Turn = 145.
  0
0 .
1 .
2 .
3 .
4 .
5 .
6 .
7 .
8 r
9 .
0 .
1 .

Turn = 290.
  0
0 .
1 .
2 .
3 .
4 .
5 r
6 .
7 .
8 .
9 .
0 .
1 .

Turn = 435.
  0
0 r
1 .
2 .
3 .
4 .
5 .
6 .
7 .
8 .
9 .
0 .
1 .

Turn = 580.
  0
0 .
1 .
2 .
3 .
4 .
5 .
6 .
7 r
8 .
9 .
0 .
1 .

Turn = 725.
  0
0 .
1 .
2 .
3 .
4 .
5 .
6 .
7 .
8 .
9 .
0 .
1 r

Turn = 870.
  0
0 r
1 .
2 .
3 .
4 .
5 .
6 .
7 .
8 .
9 .
0 .
1 .

Turn = 1015.
  0
0 .
1 .
2 .
3 .
4 .
5 .
6 .
7 .
8 r
9 .
0 .
1 .

Turn = 1160.
  0
0 .
1 .
2 .
3 .
4 .
5 .
6 .
7 .
8 .
9 .
0 .
1 r

*** Darwin 17x3 ***
Turn = 0.
  012
0 t..
1 ...
2 ...
3 ...
4 ...
5 ...
6 ...
7 ...
8 ...
9 ...
0 ...
1 ...
2 ...
3 ...
4 ...
5 ...
6 ...

Turn = 104.
  012
0 t..
1 ...
2 ...
3 ...
4 ...
5 ...
6 ...
7 ...
8 ...
9 ...
0 ...
1 ...
2 ...
3 ...
4 ...
5 ...
6 ...

Turn = 208.
  012
0 t..
1 ...
2 ...
3 ...
4 ...
5 ...
6 ...
7 ...
8 ...
9 ...
0 ...
1 ...
2 ...
3 ...
4 ...
5 ...
6 ...

Turn = 312.
  012
0 t..
1 ...
2 ...
3 ...
4 ...
5 ...
6 ...
7 ...
8 ...
9 ...
0 ...
1 ...
2 ...
3 ...
4 ...
5 ...
6 ...

Turn = 416.
  012
0 t..
1 ...
2 ...
3 ...
4 ...
5 ...
6 ...
7 ...
8 ...
9 ...
0 ...
1 ...
2 ...
3 ...
4 ...
5 ...
6 ...

Turn = 520.
  012
0 t..
1 ...
2 ...
3 ...
4 ...
5 ...
6 ...
7 ...
8 ...
9 ...
0 ...
1 ...
2 ...
3 ...
4 ...
5 ...
6 ...

*** Darwin 17x15 ***
Turn = 0.
  012345678901234
0 ..r............
1 ...t...........
2 ...t...........
3 .h.............
4 ..r............
5 .h.............
6 f..............
7 f..............
8 .h.............
9 f..............
0 ...............
1 ...............
2 ...............
3 ...............
4 ...............
5 ...............
6 ...............

Turn = 181.
  012345678901234
0 ...............
1 ......r........
2 ........r......
3 ...............
4 r..............
5 ...............
6 ...............
7 .r.............
8 ...............
9 ...............
0 ...............
1 ..............r
2 .............r.
3 ...............
4 ...............
5 ..............r
6 ........r.r..r.

Turn = 362.
  012345678901234
0 ...............
1 r..............
2 r..............
3 ...............
4 ..............r
5 ...r.r...r.....
6 .........r.....
7 ...............
8 ...............
9 ...............
0 rr.............
1 ...............
2 ...............
3 ...............
4 ...............
5 ...............
6 r..............

Turn = 543.
  012345678901234
0 ........r......
1 ...............
2 ..............r
3 ..............r
4 ...............
5 ...............
6 ...............
7 ...............
8 rr.............
9 ...........r...
0 ...............
1 r..............
2 ...............
3 ...............
4 ...............
5 .......r.......
6 ......rr.......

Turn = 724.
  012345678901234
0 ....r.....rr...
1 ...............
2 r..............
3 ...............
4 ...............
5 ...............
6 .........r...r.
7 .r........r....
8 ......r........
9 ...............
0 ...............
1 ...............
2 ...............
3 ...............
4 ...............
5 r..............
6 ...............

Turn = 905.
  012345678901234
0 ..........rr...
1 ...............
2 ...............
3 ...............
4 ..r............
5 r..............
6 ...............
7 r..............
8 r..............
9 ...............
0 ...............
1 ...............
2 ....r..........
3 ...............
4 .........r.....
5 ......r........
6 ..............r

Turn = 1086.
  012345678901234
0 .............r.
1 .............r.
2 ...............
3 ............r..
4 ...............
5 ..............r
6 ...............
7 .............rr
8 ...r...........
9 ...............
0 ...............
1 ......r........
2 ...............
3 ..............r
4 ...............
5 .r.............
6 ...............

Turn = 1267.
  012345678901234
0 ....r..........
1 ...............
2 ...............
3 ...............
4 ...............
5 ...............
6 ...............
7 ...............
8 r..............
9 ...............
0 ...............
1 ......r........
2 .......r..r....
3 ..........r....
4 ..r............
5 ...............
6 .r......r.....r

Turn = 1448.
  012345678901234
0 .......r.......
1 r......r.......
2 r..r...........
3 ...............
4 .............r.
5 ...............
6 ...............
7 ...............
8 ...............
9 ...............
0 ...............
1 ............r..
2 ..............r
3 .............r.
4 ...............
5 ...............
6 ..............r

Turn = 1629.
  012345678901234
0 .r.r......r....
1 ...............
2 ...............
3 .r............r
4 ..r............
5 ...............
6 ...............
7 ...............
8 ...............
9 ...............
0 ...............
1 ...............
2 ...........r...
3 ...............
4 ...............
5 ...............
6 .r..........rr.

*** Darwin 10x2 ***
Turn = 0.
  01
0 .t
1 .h
2 ..
3 ..
4 ..
5 ..
6 ..
7 ..
8 ..
9 ..

Turn = 180.
  01
0 .t
1 .t
2 ..
3 ..
4 ..
5 ..
6 ..
7 ..
8 ..
9 ..

Turn = 360.
  01
0 .t
1 .t
2 ..
3 ..
4 ..
5 ..
6 ..
7 ..
8 ..
9 ..

Turn = 540.
  01
0 .t
1 .t
2 ..
3 ..
4 ..
5 ..
6 ..
7 ..
8 ..
9 ..

Turn = 720.
  01
0 .t
1 .t
2 ..
3 ..
4 ..
5 ..
6 ..
7 ..
8 ..
9 ..

Turn = 900.
  01
0 .t
1 .t
2 ..
3 ..
4 ..
5 ..
6 ..
7 ..
8 ..
9 ..

Turn = 1080.
  01
0 .t
1 .t
2 ..
3 ..
4 ..
5 ..
6 ..
7 ..
8 ..
9 ..

Turn = 1260.
  01
0 .t
1 .t
2 ..
3 ..
4 ..
5 ..
6 ..
7 ..
8 ..
9 ..

Turn = 1440.
  01
0 .t
1 .t
2 ..
3 ..
4 ..
5 ..
6 ..
7 ..
8 ..
9 ..

Turn = 1620.
  01
0 .t
1 .t
2 ..
3 ..
4 ..
5 ..
6 ..
7 ..
8 ..
9 ..

Turn = 1800.
  01
0 .t
1 .t
2 ..
3 ..
4 ..
5 ..
6 ..
7 ..
8 ..
9 ..

*** Darwin 16x6 ***
Turn = 0.
  012345
0 .h....
1 .h....
2 f.....
3 ..r...
4 ..r...
5 ......
6 ......
7 ......
8 ......
9 ......
0 ......
1 ......
2 ......
3 ......
4 ......
5 ......

Turn = 64.
  012345
0 ......
1 ......
2 r.....
3 .....r
4 ......
5 ......
6 ......
7 ..r...
8 ......
9 ......
0 ......
1 ......
2 ......
3 r.....
4 ......
5 ....r.

Turn = 128.
  012345
0 ....r.
1 ......
2 ......
3 ......
4 ......
5 .....r
6 ......
7 .....r
8 ..rr..
9 ......
0 ......
1 ......
2 ......
3 ......
4 ......
5 ......

Turn = 192.
  012345
0 .....r
1 ......
2 ......
3 .....r
4 ......
5 ......
6 ......
7 ......
8 r.....
9 ......
0 .rr...
1 ......
2 ......
3 ......
4 ......
5 ......

Turn = 256.
  012345
0 rr....
1 ......
2 ......
3 ......
4 ......
5 ......
6 ......
7 ......
8 ......
9 ......
0 ......
1 ......
2 ......
3 .....r
4 ....rr
5 ......

Turn = 320.
  012345
0 ......
1 ......
2 r...rr
3 ......
4 ......
5 ......
6 ......
7 .....r
8 ......
9 ......
0 ......
1 ......
2 ......
3 ......
4 ......
5 r.....

Turn = 384.
  012345
0 ......
1 ......
2 ......
3 ......
4 ......
5 ......
6 ....r.
7 .....r
8 ......
9 ......
0 rr....
1 ......
2 ......
3 ......
4 ......
5 .....r

Turn = 448.
  012345
0 rr....
1 .r....
2 ......
3 ......
4 ......
5 ......
6 ......
7 ......
8 ......
9 ......
0 ......
1 ......
2 .....r
3 r.....
4 ......
5 ......

Turn = 512.
  012345
0 ...r..
1 ......
2 ......
3 ......
4 ......
5 ......
6 ......
7 ......
8 ......
9 .....r
0 .....r
1 ......
2 ......
3 r.....
4 ......
5 r.....

Turn = 576.
  012345
0 ..r..r
1 ......
2 ......
3 ......
4 ......
5 ......
6 ......
7 ......
8 ......
9 ....r.
0 r.....
1 r.....
2 ......
3 ......
4 ......
5 ......

Turn = 640.
  012345
0 ......
1 .....r
2 ......
3 ......
4 ......
5 r.....
6 ......
7 ......
8 ......
9 ......
0 ......
1 .....r
2 ......
3 ......
4 ......
5 ..r..r

Turn = 704.
  012345
0 ....r.
1 ......
2 ......
3 ......
4 ......
5 ......
6 .r....
7 ......
8 r.....
9 ......
0 ......
1 ......
2 ....r.
3 .....r
4 ......
5 ......

*** Darwin 2x4 ***
Turn = 0.
  0123
0 .h..
1 .h..

Turn = 84.
  0123
0 ...h
1 h...

Turn = 168.
  0123
0 ...h
1 h...

Turn = 252.
  0123
0 ...h
1 h...

Turn = 336.
  0123
0 ...h
1 h...

*** Darwin 15x12 ***
Turn = 0.
  012345678901
0 .h..........
1 .h..........
2 .h..........
3 f...........
4 ..r.........
5 ...t........
6 .h..........
7 ...t........
8 ...t........
9 ..r.........
0 ............
1 ............
2 ............
3 ............
4 ............

Turn = 135.
  012345678901
0 ............
1 ............
2 ............
3 r...........
4 ............
5 r...........
6 ...t........
7 ...t........
8 ..tt........
9 ..t........r
0 ............
1 ............
2 ............
3 ............
4 r.........r.

Turn = 270.
  012345678901
0 ...r...r....
1 ............
2 ............
3 ............
4 .r..........
5 ............
6 rr.t........
7 ...t........
8 ...tt.......
9 ............
0 ....r.......
1 ............
2 ............
3 ............
4 ............

Turn = 405.
  012345678901
0 ............
1 ............
2 ............
3 ............
4 ........r...
5 ...........r
6 .........r..
7 ...t........
8 ...tt.......
9 ............
0 r.........r.
1 ............
2 r..........r
3 ............
4 ............

Turn = 540.
  012345678901
0 ...........r
1 .........r.r
2 ...........r
3 ............
4 ............
5 ............
6 ...t........
7 ...t........
8 ...tt.......
9 ....t.......
0 r...........
1 ............
2 ............
3 ............
4 ............

Turn = 675.
  012345678901
0 ...........r
1 ...........r
2 ..........r.
3 ............
4 .......r....
5 ............
6 ............
7 ............
8 r...........
9 ...t........
0 ............
1 ............
2 ..r.........
3 .r......r...
4 r...........

Turn = 810.
  012345678901
0 ....r.......
1 ............
2 ...........r
3 ............
4 ............
5 r...........
6 .r.........r
7 ............
8 ........r...
9 ......r.....
0 ............
1 ............
2 ............
3 r...........
4 r..........r

Turn = 945.
  012345678901
0 .........r..
1 ...........r
2 ............
3 r...........
4 r...........
5 ............
6 ........r...
7 .......r....
8 ............
9 ............
0 ............
1 ............
2 r...........
3 ......r.....
4 .....r.r....

Turn = 1080.
  012345678901
0 ..r.........
1 r...........
2 ............
3 ............
4 ...........r
5 rr..........
6 ..r.........
7 ............
8 ...r........
9 ............
0 ............
1 ............
2 ............
3 .........r..
4 ..........rr

Turn = 1215.
  012345678901
0 ............
1 ............
2 r...........
3 ............
4 r....r......
5 ......r.....
6 ............
7 ..r.........
8 ............
9 ............
0 ...........r
1 ...........r
2 ............
3 ...........r
4 r......r....

Turn = 1350.
  012345678901
0 r........rr.
1 ............
2 ...........r
3 ............
4 ........r...
5 r...........
6 ............
7 ............
8 ...........r
9 ............
0 ............
1 ............
2 .r..........
3 ..r.........
4 ......r.....

Turn = 1485.
  012345678901
0 .......r....
1 ............
2 ............
3 ............
4 ..........r.
5 .........r..
6 ..........r.
7 ............
8 ............
9 .........r..
0 ........r...
1 .......r....
2 ............
3 ............
4 r..r.......r

Turn = 1620.
  012345678901
0 ............
1 ............
2 ............
3 ............
4 ...........r
5 ............
6 ............
7 ............
8 ............
9 ............
0 ...........r
1 .rr.......r.
2 .r.........r
3 .......r....
4 ......r....r

Turn = 1755.
  012345678901
0 ..rr........
1 ...r........
2 r.r....r....
3 .r..........
4 r...........
5 ............
6 ............
7 ............
8 ............
9 ...........r
0 ...........r
1 ............
2 ............
3 ............
4 ............

*** Darwin 11x10 ***
Turn = 0.
  0123456789
0 .h........
1 f.........
2 .h........
3 f.........
4 ..........
5 ..........
6 ..........
7 ..........
8 ..........
9 ..........
0 ..........

Turn = 114.
  0123456789
0 ..........
1 f.........
2 ..........
3 f.........
4 ..........
5 ..........
6 ..........
7 ..........
8 ..........
9 .h........
0 .h........

Turn = 228.
  0123456789
0 ..........
1 f.........
2 ..........
3 f.........
4 ..........
5 ..........
6 ..........
7 ..........
8 ..........
9 .h........
0 .h........

Turn = 342.
  0123456789
0 ..........
1 f.........
2 ..........
3 f.........
4 ..........
5 ..........
6 ..........
7 ..........
8 ..........
9 .h........
0 .h........

Turn = 456.
  0123456789
0 ..........
1 f.........
2 ..........
3 f.........
4 ..........
5 ..........
6 ..........
7 ..........
8 ..........
9 .h........
0 .h........

Turn = 570.
  0123456789
0 ..........
1 f.........
2 ..........
3 f.........
4 ..........
5 ..........
6 ..........
7 ..........
8 ..........
9 .h........
0 .h........

Turn = 684.
  0123456789
0 ..........
1 f.........
2 ..........
3 f.........
4 ..........
5 ..........
6 ..........
7 ..........
8 ..........
9 .h........
0 .h........

Turn = 798.
  0123456789
0 ..........
1 f.........
2 ..........
3 f.........
4 ..........
5 ..........
6 ..........
7 ..........
8 ..........
9 .h........
0 .h........

Turn = 912.
  0123456789
0 ..........
1 f.........
2 ..........
3 f.........
4 ..........
5 ..........
6 ..........
7 ..........
8 ..........
9 .h........
0 .h........

Turn = 1026.
  0123456789
0 ..........
1 f.........
2 ..........
3 f.........
4 ..........
5 ..........
6 ..........
7 ..........
8 ..........
9 .h........
0 .h........

Turn = 1140.
  0123456789
0 ..........
1 f.........
2 ..........
3 f.........
4 ..........
5 ..........
6 ..........
7 ..........
8 ..........
9 .h........
0 .h........

Turn = 1254.
  0123456789
0 ..........
1 f.........
2 ..........
3 f.........
4 ..........
5 ..........
6 ..........
7 ..........
8 ..........
9 .h........
0 .h........

*** Darwin 2x10 ***
Turn = 0.
  0123456789
0 ..r.......
1 ..r.......

Turn = 82.
  0123456789
0 r.....r...
1 ..........

*** Darwin 10x14 ***
Turn = 0.
  01234567890123
0 ...t..........
1 ..r...........
2 ..............
3 ..............
4 ..............
5 ..............
6 ..............
7 ..............
8 ..............
9 ..............

Turn = 141.
  01234567890123
0 ..............
1 ..............
2 r.............
3 ..............
4 ..............
5 ..............
6 ..............
7 ..............
8 ..............
9 .............r

Turn = 282.
  01234567890123
0 ..............
1 ..r...........
2 ..............
3 ..............
4 ..............
5 r.............
6 ..............
7 ..............
8 ..............
9 ..............

Turn = 423.
  01234567890123
0 ..............
1 .............r
2 ..............
3 ..............
4 ..............
5 ..............
6 ..............
7 ..............
8 ..............
9 ..........r...

Turn = 564.
  01234567890123
0 ..............
1 ..............
2 ..............
3 ..............
4 ..............
5 ..............
6 ..............
7 ..............
8 ..............
9 rr............

*** Darwin 12x9 ***
Turn = 0.
  012345678
0 .h.......
1 f........
2 ..r......
3 f........
4 .h.......
5 ...t.....
6 .........
7 .........
8 .........
9 .........
0 .........
1 .........

Turn = 79.
  012345678
0 .........
1 .r.......
2 .r.......
3 .r.......
4 .........
5 ...t.....
6 .........
7 .........
8 .........
9 .........
0 .........
1 r.....r..

Turn = 158.
  012345678
0 .........
1 .........
2 .........
3 .........
4 .........
5 ...tt....
6 ....t...r
7 .........
8 .........
9 .........
0 .........
1 .r......r

Turn = 237.
  012345678
0 r........
1 .........
2 .........
3 .........
4 ........r
5 ...tt....
6 ....t...r
7 .........
8 .........
9 .........
0 .........
1 .........

Turn = 316.
  012345678
0 r........
1 .........
2 .........
3 .........
4 ...t.....
5 ...ttt...
6 ....t....
7 .........
8 .........
9 .........
0 .........
1 .........

Turn = 395.
  012345678
0 .........
1 .........
2 .........
3 .........
4 ...t.....
5 r..ttt...
6 ....t....
7 .........
8 .........
9 .........
0 .........
1 .........

Turn = 474.
  012345678
0 .r.......
1 .........
2 .........
3 .........
4 ...t.....
5 ...ttt...
6 ....t....
7 .........
8 .........
9 .........
0 .........
1 .........

Turn = 553.
  012345678
0 r........
1 .........
2 .........
3 .........
4 ...t.....
5 ...ttt...
6 ....t....
7 .........
8 .........
9 .........
0 .........
1 .........

Turn = 632.
  012345678
0 .........
1 .........
2 ........r
3 .........
4 ...t.....
5 ...ttt...
6 ....t....
7 .........
8 .........
9 .........
0 .........
1 .........

Turn = 711.
  012345678
0 ....r....
1 .........
2 .........
3 .........
4 ...t.....
5 ...ttt...
6 ....t....
7 .........
8 .........
9 .........
0 .........
1 .........

Turn = 790.
  012345678
0 .........
1 .........
2 .........
3 .........
4 ...t....r
5 ...ttt...
6 ....t....
7 .........
8 .........
9 .........
0 .........
1 .........

Turn = 869.
  012345678
0 r........
1 .........
2 .........
3 .........
4 ...t.....
5 ...ttt...
6 ....t....
7 .........
8 .........
9 .........
0 .........
1 .........

Turn = 948.
  012345678
0 .........
1 .........
2 .........
3 .........
4 ...t....r
5 ...ttt...
6 ....t....
7 .........
8 .........
9 .........
0 .........
1 .........

Turn = 1027.
  012345678
0 .........
1 .........
2 .........
3 ........r
4 ...t.....
5 ...ttt...
6 ....t....
7 .........
8 .........
9 .........
0 .........
1 .........

Turn = 1106.
  012345678
0 .........
1 .........
2 .........
3 .........
4 ...t.....
5 ...ttt...
6 ....t....
7 .........
8 ........r
9 .........
0 .........
1 .........

Turn = 1185.
  012345678
0 ......r..
1 .........
2 .........
3 .........
4 ...t.....
5 ...ttt...
6 ....t....
7 .........
8 .........
9 .........
0 .........
1 .........

Turn = 1264.
  012345678
0 .........
1 .........
2 .........
3 .........
4 ...t.....
5 ...ttt...
6 ....t....
7 .........
8 .........
9 .........
0 .........
1 ......r..

Turn = 1343.
  012345678
0 .........
1 .........
2 .........
3 .........
4 ...t.....
5 ...ttt...
6 ....t....
7 .........
8 .........
9 ........r
0 .........
1 .........

Turn = 1422.
  012345678
0 .........
1 .........
2 .........
3 .........
4 ...t.....
5 ...ttt...
6 ....t....
7 .........
8 .........
9 .........
0 .........
1 ..r......

*** Darwin 19x19 ***
Turn = 0.
  0123456789012345678
0 ..r................
1 .h.................
2 ..r................
3 f..................
4 .h.................
5 f..................
6 f..................
7 ...t...............
8 ..r................
9 ...t...............
0 ..r................
1 ...t...............
2 ...t...............
3 ...t...............
4 ...................
5 ...................
6 ...................
7 ...................
8 ...................

Turn = 76.
  0123456789012345678
0 .................r.
1 ..r................
2 ..r................
3 ...................
4 ...................
5 .................r.
6 ...................
7 ...t...............
8 .................r.
9 ...t...............
0 ...................
1 ...t...............
2 ..tt...............
3 ...t...............
4 ...................
5 ...................
6 ...................
7 ...................
8 ...............r.rr

Turn = 152.
  0123456789012345678
0 ....rr..........r..
1 ..................r
2 ...................
3 ...................
4 ...................
5 ...................
6 ...................
7 ...................
8 ...................
9 .............r.....
0 ..ttr..............
1 ...t...............
2 ..tt.rr............
3 ...t...............
4 ...................
5 ...................
6 ...................
7 ...................
8 ...................

Turn = 228.
  0123456789012345678
0 r........r.........
1 ..................r
2 r..................
3 ...................
4 ...................
5 ...................
6 ...................
7 ...................
8 ...................
9 ........r..........
0 ..tt...............
1 ...t...............
2 .ttt...............
3 ...t...............
4 ..r................
5 ...................
6 ...................
7 r..................
8 ...................

Turn = 304.
  0123456789012345678
0 ...r...............
1 ...................
2 ...................
3 ...................
4 ...................
5 ...................
6 ...................
7 ..................r
8 ...................
9 ...................
0 ..t.t..............
1 t.ttt..............
2 tttt...............
3 t..t...............
4 ...................
5 ...................
6 ...................
7 ...................
8 ...................

Turn = 380.
  0123456789012345678
0 .......r...........
1 ...................
2 ...................
3 ...................
4 r..................
5 ...................
6 ...................
7 ...................
8 ...................
9 ...................
0 ....t..............
1 ..ttt..............
2 tttt...............
3 ...t...............
4 ...................
5 ...................
6 ...................
7 ...................
8 ............rrr....

Turn = 456.
  0123456789012345678
0 r..................
1 ...................
2 ...................
3 ...................
4 ...................
5 ...................
6 r..................
7 ...................
8 ...................
9 ...................
0 ...tt..............
1 ..ttt..............
2 ...tt..............
3 ..tt...............
4 ...................
5 ..................r
6 ...................
7 ...................
8 ................rr.

Turn = 532.
  0123456789012345678
0 r.r................
1 ...................
2 ...................
3 r..................
4 ...................
5 ...................
6 ...................
7 ...................
8 ...................
9 ...................
0 ...tt..............
1 ..ttt..............
2 ...tt..............
3 ..tt...............
4 ...................
5 ...................
6 ...................
7 ...................
8 ............r.....r

*** Darwin 3x2 ***
Turn = 0.
  01
0 f.
1 ..
2 ..

Turn = 118.
  01
0 f.
1 ..
2 ..

Turn = 236.
  01
0 f.
1 ..
2 ..

Turn = 354.
  01
0 f.
1 ..
2 ..

Turn = 472.
  01
0 f.
1 ..
2 ..

Turn = 590.
  01
0 f.
1 ..
2 ..

Turn = 708.
  01
0 f.
1 ..
2 ..

Turn = 826.
  01
0 f.
1 ..
2 ..

Turn = 944.
  01
0 f.
1 ..
2 ..

Turn = 1062.
  01
0 f.
1 ..
2 ..

Turn = 1180.
  01
0 f.
1 ..
2 ..

Turn = 1298.
  01
0 f.
1 ..
2 ..

Turn = 1416.
  01
0 f.
1 ..
2 ..

Turn = 1534.
  01
0 f.
1 ..
2 ..

Turn = 1652.
  01
0 f.
1 ..
2 ..

Turn = 1770.
  01
0 f.
1 ..
2 ..

*** Darwin 18x10 ***
Turn = 0.
  0123456789
0 .h........
1 ...t......
2 f.........
3 f.........
4 .h........
5 ..........
6 ..........
7 ..........
8 ..........
9 ..........
0 ..........
1 ..........
2 ..........
3 ..........
4 ..........
5 ..........
6 ..........
7 ..........

Turn = 81.
  0123456789
0 .........h
1 ...t......
2 f.........
3 f.........
4 .........h
5 ..........
6 ..........
7 ..........
8 ..........
9 ..........
0 ..........
1 ..........
2 ..........
3 ..........
4 ..........
5 ..........
6 ..........
7 ..........

Turn = 162.
  0123456789
0 .........h
1 ...t......
2 f.........
3 f.........
4 .........h
5 ..........
6 ..........
7 ..........
8 ..........
9 ..........
0 ..........
1 ..........
2 ..........
3 ..........
4 ..........
5 ..........
6 ..........
7 ..........

Turn = 243.
  0123456789
0 .........h
1 ...t......
2 f.........
3 f.........
4 .........h
5 ..........
6 ..........
7 ..........
8 ..........
9 ..........
0 ..........
1 ..........
2 ..........
3 ..........
4 ..........
5 ..........
6 ..........
7 ..........

Turn = 324.
  0123456789
0 .........h
1 ...t......
2 f.........
3 f.........
4 .........h
5 ..........
6 ..........
7 ..........
8 ..........
9 ..........
0 ..........
1 ..........
2 ..........
3 ..........
4 ..........
5 ..........
6 ..........
7 ..........

Turn = 405.
  0123456789
0 .........h
1 ...t......
2 f.........
3 f.........
4 .........h
5 ..........
6 ..........
7 ..........
8 ..........
9 ..........
0 ..........
1 ..........
2 ..........
3 ..........
4 ..........
5 ..........
6 ..........
7 ..........

*** Darwin 2x20 ***
Turn = 0.
  01234567890123456789
0 ...t................
1 ....................

Turn = 166.
  01234567890123456789
0 ...t................
1 ....................

Turn = 332.
  01234567890123456789
0 ...t................
1 ....................

Turn = 498.
  01234567890123456789
0 ...t................
1 ....................

*** Darwin 1x4 ***
Turn = 0.
  0123
0 .h..

Turn = 56.
  0123
0 h...

Turn = 112.
  0123
0 h...

Turn = 168.
  0123
0 h...

Turn = 224.
  0123
0 h...

Turn = 280.
  0123
0 h...

Turn = 336.
  0123
0 h...

Turn = 392.
  0123
0 h...

Turn = 448.
  0123
0 h...

Turn = 504.
  0123
0 h...

Turn = 560.
  0123
0 h...

Turn = 616.
  0123
0 h...

Turn = 672.
  0123
0 h...

Turn = 728.
  0123
0 h...

Turn = 784.
  0123
0 h...

Turn = 840.
  0123
0 h...

Turn = 896.
  0123
0 h...

Turn = 952.
  0123
0 h...

Turn = 1008.
  0123
0 h...

Turn = 1064.
  0123
0 h...

*** Darwin 4x12 ***
Turn = 0.
  012345678901
0 .h..........
1 ............
2 ............
3 ............

Turn = 75.
  012345678901
0 ...........h
1 ............
2 ............
3 ............

Turn = 150.
  012345678901
0 ...........h
1 ............
2 ............
3 ............

Turn = 225.
  012345678901
0 ...........h
1 ............
2 ............
3 ............

Turn = 300.
  012345678901
0 ...........h
1 ............
2 ............
3 ............

Turn = 375.
  012345678901
0 ...........h
1 ............
2 ............
3 ............

Turn = 450.
  012345678901
0 ...........h
1 ............
2 ............
3 ............

Turn = 525.
  012345678901
0 ...........h
1 ............
2 ............
3 ............

Turn = 600.
  012345678901
0 ...........h
1 ............
2 ............
3 ............

Turn = 675.
  012345678901
0 ...........h
1 ............
2 ............
3 ............

Turn = 750.
  012345678901
0 ...........h
1 ............
2 ............
3 ............

Turn = 825.
  012345678901
0 ...........h
1 ............
2 ............
3 ............

Turn = 900.
  012345678901
0 ...........h
1 ............
2 ............
3 ............

Turn = 975.
  012345678901
0 ...........h
1 ............
2 ............
3 ............

*** Darwin 19x18 ***
Turn = 0.
  012345678901234567
0 f.................
1 ..r...............
2 .h................
3 ..r...............
4 ..r...............
5 ..r...............
6 ..................
7 ..................
8 ..................
9 ..................
0 ..................
1 ..................
2 ..................
3 ..................
4 ..................
5 ..................
6 ..................
7 ..................
8 ..................

Turn = 198.
  012345678901234567
0 ...........r......
1 ..................
2 ..................
3 ..................
4 ..................
5 ..................
6 ..................
7 ..........r.......
8 ..................
9 ..................
0 ..................
1 ..................
2 ..................
3 ...........r......
4 ............r.....
5 ..................
6 .r................
7 ..................
8 r.................

Turn = 396.
  012345678901234567
0 ..r...............
1 ..r...............
2 ..................
3 ..................
4 .r................
5 r.................
6 ..................
7 ..................
8 ..................
9 ..................
0 ..................
1 ..................
2 ..................
3 ..................
4 ................rr
5 ..................
6 ..................
7 ..................
8 ..................

Turn = 594.
  012345678901234567
0 ........r.........
1 ........r........r
2 ........r........r
3 ..................
4 ..................
5 ..................
6 ..................
7 ..................
8 ..................
9 ..................
0 ..................
1 ..................
2 ..................
3 ..................
4 ..................
5 ..................
6 r.................
7 ..................
8 ..................

Turn = 792.
  012345678901234567
0 ....r.............
1 ..................
2 ..................
3 ..................
4 ..................
5 ..................
6 ..................
7 ..................
8 r.................
9 ..................
0 ..................
1 ..................
2 ..................
3 ..................
4 ..........r.......
5 ...........r......
6 ..................
7 ..........r.......
8 ..........r.......

Turn = 990.
  012345678901234567
0 .r......r.........
1 ..................
2 ..................
3 r.................
4 ..................
5 ..................
6 ..................
7 ..................
8 ..................
9 ..................
0 r.................
1 ..................
2 ..................
3 ..................
4 ..................
5 ..................
6 ..........r.......
7 ..................
8 ........r.........

Turn = 1188.
  012345678901234567
0 ..................
1 ..................
2 ..................
3 ..................
4 r................r
5 ..................
6 ..................
7 ..................
8 ..................
9 ..................
0 ..................
1 .................r
2 ..................
3 ..................
4 ..................
5 ..................
6 ...............r..
7 ...............r..
8 ..............r...

Turn = 1386.
  012345678901234567
0 .r........r..r....
1 .............r....
2 ..................
3 ..................
4 ..................
5 ................r.
6 ..................
7 ..................
8 ..................
9 .................r
0 ..................
1 ..................
2 ..................
3 ..................
4 ..................
5 ..................
6 ..................
7 ..................
8 ..................

Turn = 1584.
  012345678901234567
0 ..................
1 .................r
2 ..................
3 ..................
4 ..................
5 ................r.
6 ..................
7 ..................
8 r.................
9 ..................
0 ..................
1 ..................
2 ..................
3 ..................
4 ..................
5 ..................
6 ..................
7 ...r..............
8 ....r..r..........

*** Darwin 15x18 ***
Turn = 0.
  012345678901234567
0 f.................
1 .h................
2 ...t..............
3 ..r...............
4 .h................
5 .h................
6 ..r...............
7 .h................
8 ..r...............
9 .h................
0 ...t..............
1 .h................
2 f.................
3 ..................
4 ..................

Turn = 129.
  012345678901234567
0 r.rr..............
1 ..................
2 r.................
3 ..................
4 r.................
5 ..................
6 .................r
7 ..................
8 ..................
9 ........r.........
0 r.................
1 ..................
2 ..................
3 ..................
4 .......rr.rr..r...

Turn = 258.
  012345678901234567
0 r..r.......r.r....
1 ...r..............
2 ..................
3 ..................
4 .....rr...........
5 ....r.............
6 ........r.........
7 .......r..........
8 ..................
9 ..................
0 ..................
1 ..................
2 .................r
3 ..................
4 ....r............r

Turn = 387.
  012345678901234567
0 ..................
1 ..........r.......
2 ..................
3 ..................
4 ..................
5 ...........r.....r
6 ...............r..
7 ...............r..
8 r.................
9 r....r............
0 ..................
1 r.................
2 ..................
3 ..................
4 ..rrr..........r..

Turn = 516.
  012345678901234567
0 rr............r...
1 r.................
2 ..............r...
3 ..............r...
4 .................r
5 r...........r.....
6 .............r....
7 ..................
8 ..................
9 ..................
0 ..................
1 ..................
2 ..................
3 .............r....
4 ....r......r......

*** Darwin 20x20 ***
Turn = 0.
  01234567890123456789
0 ..r.................
1 ..r.................
2 ...t................
3 f...................
4 .h..................
5 ..r.................
6 ..r.................
7 ..r.................
8 ..r.................
9 .h..................
0 ..r.................
1 f...................
2 ...t................
3 ...t................
4 ...t................
5 .h..................
6 ....................
7 ....................
8 ....................
9 ....................

Turn = 199.
  01234567890123456789
0 rr..................
1 ....................
2 ....................
3 ..................rr
4 ....................
5 ....................
6 .r..............r...
7 r...................
8 .r..................
9 .....r..............
0 ....................
1 ....................
2 r...................
3 ...........r........
4 ...........r........
5 ..........r.........
6 ...................r
7 ....................
8 .r..................
9 r...................

*** Darwin 10x14 ***
Turn = 0.
  01234567890123
0 ..r...........
1 .h............
2 ..............
3 ..............
4 ..............
5 ..............
6 ..............
7 ..............
8 ..............
9 ..............

Turn = 114.
  01234567890123
0 .........r....
1 ..............
2 ..............
3 ..............
4 ..............
5 ..............
6 ..............
7 ..............
8 ..............
9 .............r

Turn = 228.
  01234567890123
0 ..............
1 ..............
2 ..............
3 ..............
4 ..............
5 ..............
6 .r............
7 ..............
8 ..............
9 ......r.......

Turn = 342.
  01234567890123
0 ...........r..
1 ..............
2 .............r
3 ..............
4 ..............
5 ..............
6 ..............
7 ..............
8 ..............
9 ..............

Turn = 456.
  01234567890123
0 ..............
1 r.............
2 ..............
3 ..............
4 ..............
5 ..............
6 ..............
7 ..............
8 r.............
9 ..............

Turn = 570.
  01234567890123
0 ......r.......
1 ..............
2 ..............
3 ..............
4 ..............
5 ..............
6 ..............
7 ..............
8 ..............
9 ........r.....

Turn = 684.
  01234567890123
0 ..............
1 ..............
2 ..............
3 ..............
4 r.............
5 ..............
6 ..............
7 ..............
8 ..............
9 .r............

Turn = 798.
  01234567890123
0 ....r.........
1 ..............
2 ..............
3 ..............
4 r.............
5 ..............
6 ..............
7 ..............
8 ..............
9 ..............

Turn = 912.
  01234567890123
0 ...r..........
1 ..............
2 ..............
3 ..............
4 ..............
5 ..............
6 ..............
7 r.............
8 ..............
9 ..............

Turn = 1026.
  01234567890123
0 ..............
1 ..............
2 ..............
3 ..............
4 ..............
5 ..............
6 ..............
7 ..............
8 ..............
9 r............r

Turn = 1140.
  01234567890123
0 ...........r..
1 ..............
2 ..............
3 ..............
4 .............r
5 ..............
6 ..............
7 ..............
8 ..............
9 ..............

Turn = 1254.
  01234567890123
0 .........r....
1 ..............
2 ..............
3 ..............
4 ..............
5 ..............
6 ..............
7 ..............
8 ..............
9 .............r

Turn = 1368.
  01234567890123
0 ..............
1 ..............
2 r.............
3 ..............
4 ..............
5 ..............
6 ..............
7 ..............
8 ..............
9 .r............

Turn = 1482.
  01234567890123
0 ..............
1 ..............
2 ..............
3 ..............
4 ..............
5 ..............
6 .............r
7 ..............
8 ..............
9 ....r.........

Turn = 1596.
  01234567890123
0 .......r....r.
1 ..............
2 ..............
3 ..............
4 ..............
5 ..............
6 ..............
7 ..............
8 ..............
9 ..............

*** Darwin 19x9 ***
Turn = 0.
  012345678
0 ...t.....
1 f........
2 .h.......
3 ...t.....
4 .........
5 .........
6 .........
7 .........
8 .........
9 .........
0 .........
1 .........
2 .........
3 .........
4 .........
5 .........
6 .........
7 .........
8 .........

Turn = 176.
  012345678
0 ...t.....
1 f........
2 ........h
3 ...t.....
4 .........
5 .........
6 .........
7 .........
8 .........
9 .........
0 .........
1 .........
2 .........
3 .........
4 .........
5 .........
6 .........
7 .........
8 .........

Turn = 352.
  012345678
0 ...t.....
1 f........
2 ........h
3 ...t.....
4 .........
5 .........
6 .........
7 .........
8 .........
9 .........
0 .........
1 .........
2 .........
3 .........
4 .........
5 .........
6 .........
7 .........
8 .........

Turn = 528.
  012345678
0 ...t.....
1 f........
2 ........h
3 ...t.....
4 .........
5 .........
6 .........
7 .........
8 .........
9 .........
0 .........
1 .........
2 .........
3 .........
4 .........
5 .........
6 .........
7 .........
8 .........

Turn = 704.
  012345678
0 ...t.....
1 f........
2 ........h
3 ...t.....
4 .........
5 .........
6 .........
7 .........
8 .........
9 .........
0 .........
1 .........
2 .........
3 .........
4 .........
5 .........
6 .........
7 .........
8 .........

Turn = 880.
  012345678
0 ...t.....
1 f........
2 ........h
3 ...t.....
4 .........
5 .........
6 .........
7 .........
8 .........
9 .........
0 .........
1 .........
2 .........
3 .........
4 .........
5 .........
6 .........
7 .........
8 .........

*** Darwin 13x2 ***
Turn = 0.
  01
0 .t
1 .t
2 ..
3 ..
4 ..
5 ..
6 ..
7 ..
8 ..
9 ..
0 ..
1 ..
2 ..

Turn = 87.
  01
0 .t
1 .t
2 ..
3 ..
4 ..
5 ..
6 ..
7 ..
8 ..
9 ..
0 ..
1 ..
2 ..

Turn = 174.
  01
0 .t
1 .t
2 ..
3 ..
4 ..
5 ..
6 ..
7 ..
8 ..
9 ..
0 ..
1 ..
2 ..

Turn = 261.
  01
0 .t
1 .t
2 ..
3 ..
4 ..
5 ..
6 ..
7 ..
8 ..
9 ..
0 ..
1 ..
2 ..

Turn = 348.
  01
0 .t
1 .t
2 ..
3 ..
4 ..
5 ..
6 ..
7 ..
8 ..
9 ..
0 ..
1 ..
2 ..

Turn = 435.
  01
0 .t
1 .t
2 ..
3 ..
4 ..
5 ..
6 ..
7 ..
8 ..
9 ..
0 ..
1 ..
2 ..

Turn = 522.
  01
0 .t
1 .t
2 ..
3 ..
4 ..
5 ..
6 ..
7 ..
8 ..
9 ..
0 ..
1 ..
2 ..

Turn = 609.
  01
0 .t
1 .t
2 ..
3 ..
4 ..
5 ..
6 ..
7 ..
8 ..
9 ..
0 ..
1 ..
2 ..

Turn = 696.
  01
0 .t
1 .t
2 ..
3 ..
4 ..
5 ..
6 ..
7 ..
8 ..
9 ..
0 ..
1 ..
2 ..

Turn = 783.
  01
0 .t
1 .t
2 ..
3 ..
4 ..
5 ..
6 ..
7 ..
8 ..
9 ..
0 ..
1 ..
2 ..
